<?xml version="1.0" encoding="UTF-8" standalone="no"?>
<!-- Created with Inkscape (http://www.inkscape.org/) -->

<svg
   xmlns:dc="http://purl.org/dc/elements/1.1/"
   xmlns:cc="http://creativecommons.org/ns#"
   xmlns:rdf="http://www.w3.org/1999/02/22-rdf-syntax-ns#"
   xmlns:svg="http://www.w3.org/2000/svg"
   xmlns="http://www.w3.org/2000/svg"
   xmlns:sodipodi="http://sodipodi.sourceforge.net/DTD/sodipodi-0.dtd"
   xmlns:inkscape="http://www.inkscape.org/namespaces/inkscape"
   width="205.61903mm"
   height="205.61903mm"
   viewBox="0 0 205.61903 205.61903"
   version="1.1"
   id="svg82"
   sodipodi:docname="drawing.svg"
   inkscape:version="0.92.4 5da689c313, 2019-01-14">
  <defs
     id="defs76" />
  <sodipodi:namedview
     id="base"
     pagecolor="#ffffff"
     bordercolor="#666666"
     borderopacity="1.0"
     inkscape:pageopacity="0.0"
     inkscape:pageshadow="2"
     inkscape:zoom="0.35"
     inkscape:cx="391.42856"
     inkscape:cy="334.28566"
     inkscape:document-units="mm"
     inkscape:current-layer="layer1"
     showgrid="false"
     inkscape:window-width="1920"
     inkscape:window-height="1016"
     inkscape:window-x="0"
     inkscape:window-y="27"
     inkscape:window-maximized="1" />
  <metadata
     id="metadata79">
    <rdf:RDF>
      <cc:Work
         rdf:about="">
        <dc:format>image/svg+xml</dc:format>
        <dc:type
           rdf:resource="http://purl.org/dc/dcmitype/StillImage" />
        <dc:title></dc:title>
      </cc:Work>
    </rdf:RDF>
  </metadata>
  <g
     inkscape:label="Layer 1"
     inkscape:groupmode="layer"
     id="layer1"
     style="display:inline"
     transform="translate(-2.2678604,-31.660713)">
    <circle
       id="path84"
       cx="105.07738"
       cy="134.47023"
       r="102.80952"
       style="fill:#ff9955;stroke-width:0.27894056" />
    <g
       aria-label="13033"
       transform="matrix(0.28118158,0,0,0.28118158,6.9251789,6.831911)"
       style="font-style:normal;font-weight:normal;font-size:40px;line-height:1.25;font-family:sans-serif;letter-spacing:0px;word-spacing:0px;fill:#1a1a1a;fill-opacity:1;stroke:none"
       id="flowRoot86">
      <path
         d="m 84.464844,506.1582 h 26.562496 v -75.39062 l -27.265621,5.625 v -20.46875 l 27.109371,-5.625 h 28.59375 v 95.85937 h 26.5625 v 20.78125 H 84.464844 Z"
         style="font-style:normal;font-variant:normal;font-weight:bold;font-stretch:normal;font-size:160px;font-family:sans-serif;-inkscape-font-specification:'sans-serif, Bold';font-variant-ligatures:normal;font-variant-caps:normal;font-variant-numeric:normal;font-feature-settings:normal;text-align:start;writing-mode:lr-tb;text-anchor:start;fill:#1a1a1a"
         id="path216" />
      <path
         d="m 251.57422,464.04883 q 11.79687,3.04687 17.89062,10.625 6.17188,7.5 6.17188,19.14062 0,17.34375 -13.28125,26.40625 -13.28125,8.98438 -38.75,8.98438 -8.98438,0 -18.04688,-1.48438 -8.98437,-1.40625 -17.8125,-4.29687 V 500.2207 q 8.4375,4.21875 16.71875,6.40625 8.35938,2.10938 16.40625,2.10938 11.95313,0 18.28125,-4.14063 6.40625,-4.14062 6.40625,-11.875 0,-7.96875 -6.5625,-12.03125 -6.48437,-4.14062 -19.21875,-4.14062 h -12.03125 v -19.375 h 12.65625 q 11.32813,0 16.875,-3.51563 5.54688,-3.59375 5.54688,-10.85937 0,-6.71875 -5.39063,-10.39063 -5.39062,-3.67187 -15.23437,-3.67187 -7.26563,0 -14.6875,1.64062 -7.42188,1.64063 -14.76563,4.84375 v -22.03125 q 8.90625,-2.5 17.65625,-3.75 8.75,-1.25 17.1875,-1.25 22.73438,0 33.98438,7.5 11.32812,7.42188 11.32812,22.42188 0,10.23437 -5.39062,16.79687 -5.39063,6.48438 -15.9375,9.14063 z"
         style="font-style:normal;font-variant:normal;font-weight:bold;font-stretch:normal;font-size:160px;font-family:sans-serif;-inkscape-font-specification:'sans-serif, Bold';font-variant-ligatures:normal;font-variant-caps:normal;font-variant-numeric:normal;font-feature-settings:normal;text-align:start;writing-mode:lr-tb;text-anchor:start;fill:#1a1a1a"
         id="path218" />
      <path
         d="m 361.96484,468.50195 q 0,-21.875 -4.14062,-30.78125 -4.0625,-8.98437 -13.75,-8.98437 -9.6875,0 -13.82813,8.98437 -4.14062,8.90625 -4.14062,30.78125 0,22.10938 4.14062,31.17188 4.14063,9.0625 13.82813,9.0625 9.60937,0 13.75,-9.0625 4.14062,-9.0625 4.14062,-31.17188 z m 30.07813,0.23438 q 0,28.98437 -12.5,44.76562 -12.5,15.70313 -35.46875,15.70313 -23.04688,0 -35.54688,-15.70313 -12.5,-15.78125 -12.5,-44.76562 0,-29.0625 12.5,-44.76563 12.5,-15.78125 35.54688,-15.78125 22.96875,0 35.46875,15.78125 12.5,15.70313 12.5,44.76563 z"
         style="font-style:normal;font-variant:normal;font-weight:bold;font-stretch:normal;font-size:160px;font-family:sans-serif;-inkscape-font-specification:'sans-serif, Bold';font-variant-ligatures:normal;font-variant-caps:normal;font-variant-numeric:normal;font-feature-settings:normal;text-align:start;writing-mode:lr-tb;text-anchor:start;fill:#1a1a1a"
         id="path220" />
      <path
         d="m 474.23047,464.04883 q 11.79687,3.04687 17.89062,10.625 6.17188,7.5 6.17188,19.14062 0,17.34375 -13.28125,26.40625 -13.28125,8.98438 -38.75,8.98438 -8.98438,0 -18.04688,-1.48438 -8.98437,-1.40625 -17.8125,-4.29687 V 500.2207 q 8.4375,4.21875 16.71875,6.40625 8.35938,2.10938 16.40625,2.10938 11.95313,0 18.28125,-4.14063 6.40625,-4.14062 6.40625,-11.875 0,-7.96875 -6.5625,-12.03125 -6.48437,-4.14062 -19.21875,-4.14062 h -12.03125 v -19.375 h 12.65625 q 11.32813,0 16.875,-3.51563 5.54688,-3.59375 5.54688,-10.85937 0,-6.71875 -5.39063,-10.39063 -5.39062,-3.67187 -15.23437,-3.67187 -7.26563,0 -14.6875,1.64062 -7.42188,1.64063 -14.76563,4.84375 v -22.03125 q 8.90625,-2.5 17.65625,-3.75 8.75,-1.25 17.1875,-1.25 22.73438,0 33.98438,7.5 11.32812,7.42188 11.32812,22.42188 0,10.23437 -5.39062,16.79687 -5.39063,6.48438 -15.9375,9.14063 z"
         style="font-style:normal;font-variant:normal;font-weight:bold;font-stretch:normal;font-size:160px;font-family:sans-serif;-inkscape-font-specification:'sans-serif, Bold';font-variant-ligatures:normal;font-variant-caps:normal;font-variant-numeric:normal;font-feature-settings:normal;text-align:start;writing-mode:lr-tb;text-anchor:start;fill:#1a1a1a"
         id="path222" />
      <path
         d="m 585.55859,464.04883 q 11.79688,3.04687 17.89063,10.625 6.17187,7.5 6.17187,19.14062 0,17.34375 -13.28125,26.40625 -13.28125,8.98438 -38.75,8.98438 -8.98437,0 -18.04687,-1.48438 -8.98438,-1.40625 -17.8125,-4.29687 V 500.2207 q 8.4375,4.21875 16.71875,6.40625 8.35937,2.10938 16.40625,2.10938 11.95312,0 18.28125,-4.14063 6.40625,-4.14062 6.40625,-11.875 0,-7.96875 -6.5625,-12.03125 -6.48438,-4.14062 -19.21875,-4.14062 h -12.03125 v -19.375 h 12.65625 q 11.32812,0 16.875,-3.51563 5.54687,-3.59375 5.54687,-10.85937 0,-6.71875 -5.39062,-10.39063 -5.39063,-3.67187 -15.23438,-3.67187 -7.26562,0 -14.6875,1.64062 -7.42187,1.64063 -14.76562,4.84375 v -22.03125 q 8.90625,-2.5 17.65625,-3.75 8.75,-1.25 17.1875,-1.25 22.73437,0 33.98437,7.5 11.32813,7.42188 11.32813,22.42188 0,10.23437 -5.39063,16.79687 -5.39062,6.48438 -15.9375,9.14063 z"
         style="font-style:normal;font-variant:normal;font-weight:bold;font-stretch:normal;font-size:160px;font-family:sans-serif;-inkscape-font-specification:'sans-serif, Bold';font-variant-ligatures:normal;font-variant-caps:normal;font-variant-numeric:normal;font-feature-settings:normal;text-align:start;writing-mode:lr-tb;text-anchor:start;fill:#1a1a1a"
         id="path224" />
    </g>
  </g>
</svg>
